[gd_scene format=1]

[node name="tilemap_exporter_dock" type="Control"]

focus/ignore_mouse = false
focus/stop_mouse = true
size_flags/horizontal = 2
size_flags/vertical = 2
margin/left = 0.0
margin/top = 0.0
margin/right = 40.0
margin/bottom = 40.0

[node name="export" type="MenuButton" parent="."]

focus/ignore_mouse = false
focus/stop_mouse = true
size_flags/horizontal = 2
size_flags/vertical = 2
margin/left = 0.0
margin/top = 0.0
margin/right = 102.0
margin/bottom = 20.0
toggle_mode = false
click_on_press = true
enabled_focus_mode = 0
shortcut = null
text = "Export"
flat = true
items = [  ]


